100;8.94e-5;0.00011885;5.5e-6
200;0.00053265;0.00049565;1.13e-5
300;0.00077715;0.00113925;1.74005e-5
400;0.0013724994999999999;0.0021871;4.8549e-5
500;0.0021186505;0.0034226995;2.72995e-5
600;0.0033198505;0.00502615;3.535e-5
700;0.0047241005;0.0073746;4.51e-5
800;0.006615249;0.0099635495;5.97e-5
900;0.0084972;0.012718949;5.5400000000000005e-5
1000;0.0108075995;0.0164078505;6.52005e-5
1100;0.01437735;0.0214397;6.70505e-5
1200;0.016991100500000002;0.024954901;7.82e-5
1300;0.0194943;0.0293192;0.0001096505
1400;0.023103449999999998;0.0336812;0.0001017005
1500;0.0269277;0.03849235;9.704949999999999e-5
1600;0.03024495;0.0439617005;0.00011495
1700;0.0390290005;0.052986449500000005;0.0001017
1800;0.0424716495;0.061153300499999994;0.000117451
1900;0.0478277;0.06910560099999999;0.0001229995
2000;0.05379265;0.0770817495;0.00014110000000000001
2100;0.0592013;0.0831939;0.0001480505
2200;0.06446604950000001;0.09190565049999999;0.0001513
2300;0.07225679900000001;0.110319449;0.00026625
2400;0.08983245000000001;0.12940919950000002;0.0002243495
2500;0.11174945;0.14567385;0.0001625005
2600;0.0976749;0.1379318;0.00017625
2700;0.10115594950000001;0.1558528005;0.0001935495
2800;0.105579351;0.15237150049999998;0.00017785
2900;0.1129350005;0.1630321;0.0002013505
3000;0.12276605;0.1722609;0.0002299005
3100;0.1403716995;0.208802801;0.00021420100000000002
3200;0.159180151;0.22264414999999999;0.0002732995
3300;0.17170115;0.24233755;0.0002391495
3400;0.16293785;0.2640608995;0.0002747005
3500;0.19774535;0.2819123005;0.00024235
3600;0.2110163005;0.30343694899999996;0.00023484949999999998
3700;0.2215686495;0.31778724950000004;0.0002847505
3800;0.1980591495;0.2873882995;0.00028685
3900;0.2134988005;0.2997342;0.0003141505
4000;0.22238985;0.31456139949999995;0.0003229
4100;0.23007275;0.3311914005;0.00030585050000000004
4200;0.24708519950000002;0.3510371;0.0002750495
4300;0.27945935050000004;0.42512205000000003;0.00033189950000000004
4400;0.2865132495;0.42051499999999997;0.00035435100000000004
4500;0.29634194950000003;0.40656375050000004;0.0003086
4600;0.3216898995;0.4122133;0.0003676
4700;0.3116128005;0.43837665;0.00031829950000000003
4800;0.3234062005;0.4613535995;0.0003392
4900;0.33860825;0.5464309495;0.0003394
5000;0.40811379999999997;0.5717252995;0.00037655
